Name,Team,Country,Sex,BirthDate,BirthYear,Division,WeightClassKg,BodyweightKg,Squat1Kg,Squat2Kg,Squat3Kg,Best3SquatKg,Bench1Kg,Bench2Kg,Bench3Kg,Best3BenchKg,Deadlift1Kg,Deadlift2Kg,Deadlift3Kg,Best3DeadliftKg,TotalKg,Place,Event,Equipment
Nicolás Urioste,Uruguay,Uruguay,M,,1968,Open,105,100.7,205,-220,-220,205,157.5,-162.5,-162.5,157.5,-150,-150,150,150,512.5,30,SBD,Raw
Milan Smiljanić,Serbia,Serbia,M,,1978,Open,120+,148.95,300,310,320,320,215,225,-230,225,245,255,-275,255,800,17,SBD,Raw
Charles Degiorgio,Malta,Malta,M,,1979,Open,83,82.4,220,230,-237.5,230,110,-115,-115,110,240,-250,-250,240,580,32,SBD,Raw
Franklin León,Ecuador,Ecuador,M,,1983,Open,59,58.8,205,215,222.5,222.5,125,135,-140,135,215,230,240,240,597.5,3,SBD,Raw
Mario Mifsud,Malta,Malta,M,,1983,Open,120,113.5,-240,240,242.5,242.5,160,-170,-170,160,300,315,-325,315,717.5,21,SBD,Raw
Tony Cliffe,Great Britain,UK,M,,1984,Open,120,119.5,310,340,345,345,230,242.5,-247.5,242.5,340,352.5,365,365,952.5,1,SBD,Raw
Mohammadali Mohammadi-Dinani,Iran,Iran,M,,1984,Open,105,101.85,290,-302.5,-305,290,125,,,125,-345,345,-355,345,760,23,SBD,Raw
Rubén Rico Martín,Spain,Spain,M,,1984,Open,120+,200,360,-380,380,380,225,-235,-235,225,320,-337.5,347.5,347.5,952.5,7,SBD,Raw
Carl Petter Sommerseth,Norway,Norway,M,,1985,Open,120,119.15,275,282.5,-285,282.5,190,200,207.5,207.5,300,330,-355,330,820,16,SBD,Raw
Yusuke Takeda,Japan,Japan,M,,1985,Open,93,92.45,255,272.5,-287.5,272.5,190,197.5,202.5,202.5,262.5,282.5,-302.5,282.5,757.5,21,SBD,Raw
Sibusiso Sishi,South Africa,South Africa,M,,1985,Open,93,91.9,250,260,-265,260,150,160,-165,160,270,280,295,295,715,33,SBD,Raw
Yuki Shibuya,Japan,Japan,M,,1985,Open,74,73.5,260,272.5,-283.5,272.5,155,162.5,-167.5,162.5,240,255,-265,255,690,15,SBD,Raw
Aaron Thompson #1,Great Britain,UK,M,,1985,Open,120+,178.45,350,380,387.5,387.5,205,210,212.5,212.5,-310,310,325,325,925,8,SBD,Raw
Alex Dennis,US Virgin Islands,US Virgin Islands,M,,1985,Open,105,101.95,220,227.5,-240,227.5,157.5,167.5,-180,167.5,245,260,-275,260,655,29,SBD,Raw
Julien Balangwe Bakinien,Cameroon,Cameroon,M,,1986,Open,93,92.65,280,-290,-290,280,175,185,-190,185,290,315,325,325,790,12,SBD,Raw
Joshua Wright #1,Germany,Germany,M,,1986,Open,74,73.4,225,237.5,242.5,242.5,177.5,-185,185,185,285,300,315,315,742.5,7,SBD,Raw
Mohamed Sahad,Algeria,Algeria,M,,1987,Open,120,119.25,-360,360,375,375,205,217.5,220,220,330,-342.5,-342.5,330,925,2,SBD,Raw
Ilyes Boughalem,Algeria,Algeria,M,,1987,Open,120+,164.65,335,-355,360,360,265,280,-292,280,280,290,315,315,955,6,SBD,Raw
Adam Jones #1,Australia,Australia,M,,1987,Open,93,92.8,282.5,300,-305,300,147.5,155,160,160,-302.5,302.5,325,325,785,14,SBD,Raw
Mikko Muttonen,Finland,Finland,M,,1987,Open,93,93,220,,,220,170,180,-185,180,300,,,300,700,35,SBD,Raw
Amar Kanane,Algeria,Algeria,M,,1987,Open,93,92.7,310,325,-331.5,325,170,177.5,-180,177.5,315,-332.5,-332.5,315,817.5,9,SBD,Raw
Māris Juzups,Latvia,Latvia,M,,1988,Open,120,119.85,310,325,-337.5,325,222.5,-232.5,-237.5,222.5,280,295,305,305,852.5,9,SBD,Raw
Roberto Junior Thomas Vargas,Peru,Peru,M,,1988,Open,83,80,220,230,-237.5,230,142.5,147.5,-155,147.5,240,255,-260,255,632.5,28,SBD,Raw
Abdulla Mohamed Ahmeed Mohamed,Libya,Libya,M,,1988,Open,105,103.55,315,325,-335,325,202.5,210,212.5,212.5,350,360,365,365,902.5,3,SBD,Raw
Pascal Suckow,Germany,Germany,M,,1988,Open,93,92.65,270,290,-302.5,290,165,170,,170,300,-315,,300,760,19,SBD,Raw
Kjell Egil Bakkelund,Norway,Norway,M,,1988,Open,74,73.4,232.5,242.5,250,250,182.5,187.5,192.5,192.5,300,317.5,-328,317.5,760,4,SBD,Raw
Taylor Atwood,USA,USA,M,,1988,Open,74,73.75,255,270,-277.5,270,182.5,192.5,197.5,197.5,292.5,310,-323,310,777.5,3,SBD,Raw
Joseph Jordan #2,US Virgin Islands,US Virgin Islands,M,,1988,Open,74,73.5,255,-265,-265,255,160,167.5,-172.5,167.5,270,280,-285,280,702.5,13,SBD,Raw
Mateusz Grzesik,Poland,Poland,M,,1989,Open,120,119.8,300,-310,-315,300,202.5,207.5,-210,207.5,75,,,75,582.5,24,SBD,Raw
Kai-Chieh Chiang,Chinese Taipei,Taiwan,M,,1989,Open,83,82.05,285,295,-302.5,295,170,-177.5,177.5,177.5,-305,305,320,320,792.5,5,SBD,Raw
Moussa Yehia,Lebanon,Lebanon,M,,1989,Open,83,82.9,220,232.5,240,240,112.5,120,-122.5,120,305,-327.5,-327.5,305,665,26,SBD,Raw
Benjamin Yu,Canada,Canada,M,,1989,Open,59,58,170,177.5,-180,177.5,-127.5,127.5,-135,127.5,-195,195,-207.5,195,500,14,SBD,Raw
Aftab Uddin,Bangladesh,Bangladesh,M,,1989,Open,66,65.7,195,207.5,-212.5,207.5,117.5,125,-127.5,125,235,-250,-250,235,567.5,14,SBD,Raw
Eric Smulders,Thailand,Thailand,M,,1989,Open,66,65.85,205,217.5,-222.5,217.5,137.5,145,-147.5,145,235,247.5,-260,247.5,610,10,SBD,Raw
Matteo Aquilina,Malta,Malta,M,,1989,Open,66,65.3,175,-185,185,185,105,110,112.5,112.5,195,205,215,215,512.5,16,SBD,Raw
Steve Ringoot,Belgium,Belgium,M,,1989,Open,120+,141.9,320,335,-342.5,335,220,227.5,-230,227.5,320,335,-337.5,335,897.5,12,SBD,Raw
Álvaro Fernández Arcas,Spain,Spain,M,,1989,Open,66,65.2,220,230,-232.5,230,140,147.5,-150,147.5,235,242.5,247.5,247.5,625,8,SBD,Raw
Andreas Polednak,Austria,Austria,M,,1989,Open,93,91.8,-230,230,245,245,155,160,165,165,285,305,-322.5,305,715,32,SBD,Raw
Mehrdad Zafari,Iran,Iran,M,,1989,Open,59,59,175,182.5,190,190,105,-115,120,120,205,-215,215,215,525,12,SBD,Raw
Shiva Karout,Lebanon,Lebanon,M,,1989,Open,74,72.1,220,230,-235,230,130,142.5,-150,142.5,220,235,-250,235,607.5,19,SBD,Raw
Jeroen Van Heesvelde,Belgium,Belgium,M,,1990,Open,105,104.45,260,280,285,285,187.5,195,-200,195,282.5,297.5,310,310,790,19,SBD,Raw
Guillermo González López,Spain,Spain,M,,1990,Open,93,91.85,250,265,275,275,180,187.5,-192.5,187.5,270,282.5,290,290,752.5,25,SBD,Raw
Luciano Delorenzi,Costa Rica,Costa Rica,M,,1991,Open,120,119.7,287.5,300,307.5,307.5,187.5,197.5,202.5,202.5,300,315,-325,315,825,14,SBD,Raw
Ching-Lun Lin,Chinese Taipei,Taiwan,M,,1991,Open,66,65.8,180,200,-210,200,120,-130,-130,120,220,235,-250,235,555,15,SBD,Raw
Matheus Costa,Brazil,Brazil,M,,1991,Open,120,118.95,285,305,320,320,177.5,185,-190,185,330,-352.5,-355,330,835,13,SBD,Raw
Inderraj Singh Dhillon,Great Britain,UK,M,,1991,Open,120,119.75,320,340,-345,340,170,180,-182.5,180,345,375,386,386,906,3,SBD,Raw
Juan Carlos Pereyra,Uruguay,Uruguay,M,,1991,Open,93,90.7,-235,235,-245,235,-165,165,172.5,172.5,240,-252.5,,240,647.5,37,SBD,Raw
Sascha Stendebach,Germany,Germany,M,,1991,Open,93,92.9,272.5,280,285,285,202.5,210,212.5,212.5,335,357.5,365,365,862.5,4,SBD,Raw
Alessandro Valastro,Malta,Malta,M,,1991,Open,93,91.35,200,220,222.5,222.5,132.5,140,-150,140,-260,-260,-260,-260,,DQ,SBD,Raw
Ryan Kiecker,Thailand,Thailand,M,,1991,Open,93,92.1,260,275,285,285,165,175,-182.5,175,285,300,310,310,770,16,SBD,Raw
Christian Ayandokun,Great Britain,UK,M,,1991,Open,93,92.9,250,270,282.5,282.5,190,200,-202.5,200,315,340,-360,340,822.5,8,SBD,Raw
Jure Rus,Slovenia,Slovenia,M,,1991,Open,83,82.5,250,262.5,270,270,157.5,162.5,-167.5,162.5,265,280,287.5,287.5,720,19,SBD,Raw
Torben H. Strømsvik,Norway,Norway,M,,1992,Open,105,104.8,255,265,-272.5,265,192.5,-200,200,200,300,315,-335,315,780,22,SBD,Raw
Łukasz Nizio,Poland,Poland,M,,1992,Open,120+,137.25,290,310,322.5,322.5,175,190,-200,190,280,305,-330,305,817.5,16,SBD,Raw
Steven Day,Australia,Australia,M,,1992,Open,74,74,247.5,262.5,-270,262.5,155,160,162.5,162.5,257.5,275,282.5,282.5,707.5,11,SBD,Raw
Nishalin Govender,South Africa,South Africa,M,,1992,Open,74,73.7,175,187.5,195,195,105,112.5,117.5,117.5,260,280,-295,280,592.5,20,SBD,Raw
Jonathan Cayco,USA,USA,M,,1992,Open,93,92.9,282.5,295,300,300,230,237.5,243,243,320,337.5,345,345,888,1,SBD,Raw
Michael Wimmesberger,Austria,Austria,M,,1992,Open,83,82.6,235,245,252.5,252.5,152.5,-157.5,-157.5,152.5,260,280,-295,280,685,22,SBD,Raw
Thomas Jost,Austria,Austria,M,,1992,Open,93,92.7,260,275,282.5,282.5,175,182.5,187.5,187.5,287.5,302.5,315,315,785,13,SBD,Raw
Tadej Kovačič,Slovenia,Slovenia,M,,1992,Open,120,119.75,277.5,295,307.5,307.5,150,155,157.5,157.5,275,-295,-307.5,275,740,20,SBD,Raw
Maximilian Eisinger,Germany,Germany,M,,1992,Open,83,82.45,255,262.5,270,270,175,180,-182.5,180,265,277.5,290,290,740,12,SBD,Raw
Andrew Rubinstein,Belgium,Belgium,M,,1992,Open,93,91.2,235,247.5,250,250,170,177.5,180,180,280,300,-310,300,730,29,SBD,Raw
Ibnu Ayyub,Brunei,Brunei,M,,1992,Open,59,58.6,180,-185,-185,180,100,105,110,110,200,210,220,220,510,13,SBD,Raw
Callan Gibbons,Australia,Australia,M,,1992,Open,93,91.85,265,275,282.5,282.5,162.5,170,172.5,172.5,295,312.5,-330,312.5,767.5,17,SBD,Raw
Eduardo Saramago,Brazil,Brazil,M,,1992,Open,83,82.5,225,237.5,242.5,242.5,142.5,147.5,152.5,152.5,262.5,275,285,285,680,24,SBD,Raw
Viktor Samúelsson,Iceland,Iceland,M,,1993,Open,105,104.85,270,280,290,290,185,195,200,200,300,312.5,322.5,322.5,812.5,14,SBD,Raw
Kerry Dennison,Canada,Canada,M,,1993,Open,120,116.85,282.5,290,295,295,195,202.5,210,210,335,352.5,-357.5,352.5,857.5,6,SBD,Raw
Clinton Lee #1,Singapore,Singapore,M,,1993,Open,74,73.1,247.5,257.5,262.5,262.5,160,-165,-165,160,290,302.5,-317.5,302.5,725,9,SBD,Raw
Regie Ramirez,Philippines,Philippines,M,,1993,Open,59,58.75,190,205,210,210,100,-110,-110,100,-237.5,245,-260,245,555,7,SBD,Raw
Yosuke Horiguchi,Japan,Japan,M,,1993,Open,83,82.75,-215,215,-227.5,215,165,-175,-175,165,210,225,232.5,232.5,612.5,31,SBD,Raw
Daniel Kemmink,Thailand,Thailand,M,,1993,Open,120,116.6,-245,-245,245,245,155,165,-170,165,260,280,300,300,710,22,SBD,Raw
Christos Konstantinou,Cyprus,Cyprus,M,,1993,Open,74,73.4,240,242.5,265,265,150,-157.5,-162.5,150,265,282.5,290,290,705,12,SBD,Raw
Jamie King #1,New Zealand,New Zealand,M,,1993,Open,93,92.45,275,290,297.5,297.5,167.5,175,180,180,297.5,317.5,-322.5,317.5,795,11,SBD,Raw
Shawn Farrugia,Malta,Malta,M,,1993,Open,74,71.5,190,205,212.5,212.5,135,142.5,-147.5,142.5,205,215,-247.5,215,570,21,SBD,Raw
Bálint P. Nagy,Hungary,Hungary,M,,1994,Open,93,92.55,-250,250,265,265,177.5,187.5,-195,187.5,270,-287.5,-295,270,722.5,30,SBD,Raw
Jacek Juszczyk,Poland,Poland,M,,1994,Open,120+,134.35,300,315,322.5,322.5,210,217.5,-222.5,217.5,-300,300,-315,300,840,15,SBD,Raw
Carlos Petterson-Grifith,Guyana,Guyana,M,,1994,Open,93,92.7,300,320,-332,320,160,170,172.5,172.5,330,355,-365,355,847.5,6,SBD,Raw
Martin Hladík,Czechia,Czechia,M,,1994,Open,83,82.9,242.5,252.5,260,260,150,157.5,162.5,162.5,300,312.5,-317.5,312.5,735,13,SBD,Raw
Jens Peter Smalbro,Denmark,Denmark,M,,1994,Open,120,119.55,300,320,-327.5,320,165,177.5,185,185,325,342.5,-355,342.5,847.5,10,SBD,Raw
Dion Louie,New Zealand,New Zealand,M,,1994,Open,59,58.7,160,165,-167.5,165,112.5,117.5,-120,117.5,250,-260,260,260,542.5,9,SBD,Raw
Michael Leitner,Austria,Austria,M,,1994,Open,120,115.8,272.5,287.5,-297.5,287.5,185,195,-202.5,195,302.5,325,337.5,337.5,820,15,SBD,Raw
Michael Rand,Australia,Australia,M,,1994,Open,105,103.05,270,282.5,290,290,182.5,190,-195,190,300,320,330,330,810,15,SBD,Raw
Delaney Wallace,USA,USA,M,,1994,Open,83,82.8,285,295,-302.5,295,185,-192.5,195,195,310,325,-330,325,815,1,SBD,Raw
Panagiotis Tarinidis,France,France,M,,1994,Open,66,65.95,235,247.5,-252.5,247.5,165,170,172.5,172.5,270,285,-292.5,285,705,1,SBD,Raw
Rob Esselens,Belgium,Belgium,M,,1994,Open,93,92.65,265,275,-280,275,182.5,190,-195,190,270,290,-300,290,755,23,SBD,Raw
Alexander Eriksson,Sweden,Sweden,M,,1994,Open,74,73.5,230,242.5,250,250,167.5,177.5,182.5,182.5,277.5,292.5,307.5,307.5,740,8,SBD,Raw
Mikaele Kise,Singapore,Singapore,M,,1995,Open,93,91.05,235,250,260,260,155,160,-165,160,-300,305,320,320,740,28,SBD,Raw
Mohamed Elhamali,Libya,Libya,M,,1995,Open,59,58.8,170,180,-190,180,115,122.5,-125,122.5,240,255,-262.5,255,557.5,6,SBD,Raw
Bob van den Boogaard,Netherlands,Netherlands,M,,1995,Open,105,105,297.5,312.5,-317.5,312.5,152.5,162.5,170,170,310,327.5,332.5,332.5,815,12,SBD,Raw
Kasemsand Senumong,Thailand,Thailand,M,,1995,Open,66,64.8,-235,235,-250,235,142.5,-145,-145,142.5,260,280,-301,280,657.5,5,SBD,Raw
Christophe Ang,Singapore,Singapore,M,,1995,Open,83,82.7,230,242.5,-247.5,242.5,182.5,187.5,190,190,270,282.5,-290,282.5,715,20,SBD,Raw
Jackson Stubberfield,Australia,Australia,M,,1995,Open,120+,148.05,300,322.5,335,335,190,197.5,202.5,202.5,300,322.5,330,330,867.5,14,SBD,Raw
Víctor Vázquez Hernández-Carrillo,Spain,Spain,M,,1995,Open,120,119.05,315,330,340,340,205,215,-217.5,215,322.5,340,-347.5,340,895,5,SBD,Raw
Wayne Gregoraci,Malta,Malta,M,,1995,Open,105,102.65,240,260,-275,260,145,152.5,-157.5,152.5,260,280,-292.5,280,692.5,27,SBD,Raw
Wei-Xiang Zeng,Chinese Taipei,Taiwan,M,,1995,Open,59,58.85,185,-195,195,195,107.5,115,-120,115,230,-245,-247.5,230,540,10,SBD,Raw
Gustav Hedlund,Sweden,Sweden,M,,1995,Open,93,92.65,295,312.5,320,320,200,210,-217.5,210,320,332.5,345,345,875,2,SBD,Raw
Teemu Hällfors,Finland,Finland,M,,1995,Open,83,81.95,225,242.5,252.5,252.5,175,-182.5,-185,175,245,-265,-265,245,672.5,25,SBD,Raw
Antoine Garcia,France,France,M,,1995,Open,59,58.8,207.5,215,217.5,217.5,117.5,125,127.5,127.5,230,242.5,-255,242.5,587.5,4,SBD,Raw
Michael Davis #1,USA,USA,M,,1995,Open,105,104.75,285,310,317.5,317.5,210,217.5,-222.5,217.5,330,350,-365,350,885,4,SBD,Raw
Scott Jennings,Jamaica,Jamaica,M,,1995,Open,83,82.4,-247.5,-247.5,247.5,247.5,170,177.5,182.5,182.5,-305,305,315,315,745,11,SBD,Raw
Sam Butterworth,Australia,Australia,M,,1995,Open,120,119.8,280,295,300,300,177.5,182.5,-185,182.5,300,-310,-310,300,782.5,18,SBD,Raw
Derick Luu,Canada,Canada,M,,1995,Open,66,65.85,190,200,207.5,207.5,142.5,150,-155,150,235,250,-255,250,607.5,11,SBD,Raw
Cian Madden,Ireland,Ireland,M,,1995,Open,93,92.75,275,290,300,300,167.5,175,-177.5,175,280,-297.5,-302.5,280,755,24,SBD,Raw
Erik Mata,Hungary,Hungary,M,,1996,Open,105,103.05,280,302.5,310,310,180,190,-195,190,285,-302.5,302.5,302.5,802.5,17,SBD,Raw
Dmytro Vovk,Ukraine,Ukraine,M,,1996,Open,120+,143,335,352.5,-362.5,352.5,-235,235,247.5,247.5,315,335,-345,335,,DD,SBD,Raw
Sil Maris,Netherlands,Netherlands,M,,1996,Open,93,92.1,260,275,-282.5,275,160,167.5,170,170,292.5,312.5,-320,312.5,757.5,20,SBD,Raw
Joel Christopher Catena,Austria,Austria,M,,1996,Open,66,65.8,207.5,220,227.5,227.5,150,-155,-155,150,230,245,255,255,632.5,7,SBD,Raw
Emil Norling,Sweden,Sweden,M,,1996,Open,105,104.7,315,325,-327.5,325,200,207.5,210,210,345,360,370,370,905,2,SBD,Raw
Uros Pihler,Slovenia,Slovenia,M,,1996,Open,105,104.75,260,275,-280,275,147.5,155,160,160,290,305,315,315,750,26,SBD,Raw
Yanis Bouchou,France,France,M,,1996,Open,83,82.6,270,275,-280,275,175,180,182.5,182.5,305,335,337.5,337.5,795,4,SBD,Raw
Jack Söderberg,Sweden,Sweden,M,,1996,Open,83,82.65,265,277.5,285,285,185,195,-200,195,295,307.5,-315,307.5,787.5,7,SBD,Raw
Yusuke Satake,Japan,Japan,M,,1996,Open,66,65.85,-230,230,242.5,242.5,150,155,160,160,250,262.5,-272.5,262.5,665,4,SBD,Raw
Hsin-Mu Hsieh,Chinese Taipei,Taiwan,M,,1996,Open,59,58.6,160,170,180,180,127.5,132.5,-137.5,132.5,190,205,215,215,527.5,11,SBD,Raw
Abdulrahman Mousa,Libya,Libya,M,,1996,Open,120+,165.5,370,-400,-405,370,200,220,235,235,340,-360,360,360,965,4,SBD,Raw
Ali Abbas,New Zealand,New Zealand,M,,1996,Open,59,58.85,190,200,-202.5,200,120,125,-127.5,125,225,-235,-235,225,550,8,SBD,Raw
Yuki Kashima,Australia,Australia,M,,1996,Open,66,65.85,215,-225,-225,215,152.5,157.5,162.5,162.5,225,240,-250,240,617.5,9,SBD,Raw
Elias de Buck,Belgium,Belgium,M,,1996,Open,83,81.3,247.5,260,-265,260,167.5,-177.5,180,180,262.5,282.5,292.5,292.5,732.5,14,SBD,Raw
Áron Hegedűs,Hungary,Hungary,M,,1996,Open,105,103.8,270,292.5,305,305,165,177.5,-182.5,177.5,300,335,-355,335,817.5,11,SBD,Raw
Ben Pape,Great Britain,UK,M,,1996,Open,105,104.75,312.5,330,-335,330,182.5,190,-192.5,190,330,355,-362.5,355,875,7,SBD,Raw
Jamie Cortes Heredia,Spain,Spain,M,,1996,Open,83,82.85,220,-230,235,235,162.5,167.5,,167.5,292.5,305,,305,707.5,21,SBD,Raw
Timothy Monigatti,New Zealand,New Zealand,M,,1996,Open,74,73.85,267.5,277.5,283.5,283.5,165,170,-172.5,170,297.5,315,324.5,324.5,778,2,SBD,Raw
Kwaku Antwi,Canada,Canada,M,,1996,Open,93,92.5,255,267.5,272.5,272.5,190,200,-207.5,200,327.5,342.5,-347.5,342.5,815,10,SBD,Raw
Anatolii Novopismennyi,Ukraine,Ukraine,M,,1996,Open,105,104,345,355,362.5,362.5,212.5,222.5,225,225,330,340,352.5,352.5,940,1,SBD,Raw
Malcolm Farrugia,Malta,Malta,M,,1997,Open,105,103.35,237.5,-252.5,252.5,252.5,142.5,150,157.5,157.5,252.5,267.5,-282.5,267.5,677.5,28,SBD,Raw
Paul Rembauville,France,France,M,,1997,Open,74,73.9,260,-272.5,-272.5,260,152.5,157.5,162.5,162.5,295,312.5,322.5,322.5,745,6,SBD,Raw
Michael Pühringer,Austria,Austria,M,,1997,Open,83,82.5,242.5,252.5,260,260,172.5,177.5,182.5,182.5,260,270,280,280,722.5,17,SBD,Raw
Abdul Majeed Sulayman,Great Britain,UK,M,,1997,Open,105,104.5,300,320,-325,320,195,202.5,207.5,207.5,-340,340,352.5,352.5,880,6,SBD,Raw
Wascar Carpio,USA,USA,M,,1997,Open,59,59,205,215,222.5,222.5,130,137.5,142.5,142.5,245,260,-272.5,260,625,1,SBD,Raw
Adrian Josef Perillo,Philippines,Philippines,M,,1997,Open,59,58.5,-155,160,-167.5,160,-115,-115,-115,-115,225,240,-250,240,,DQ,SBD,Raw
Daniel Villacampa Estallo,Spain,Spain,M,,1997,Open,105,104.95,270,285,-295,285,170,-180,180,180,300,325,-342.5,325,790,20,SBD,Raw
Emil Krastev,Bulgaria,Bulgaria,M,,1997,Open,93,92.75,277.5,292.5,302.5,302.5,215,222.5,232.5,232.5,320,337.5,-342.5,337.5,872.5,3,SBD,Raw
Cheong Cheng Wen,Singapore,Singapore,M,,1997,Open,74,73.3,225,235,240,240,150,157.5,-160,157.5,295,-307.5,-307.5,295,692.5,14,SBD,Raw
Kyota Ushiyama,Japan,Japan,M,,1997,Open,66,65.9,225,242.5,247.5,247.5,165,170,-172.5,170,275,-292.5,-292.5,275,692.5,3,SBD,Raw
Alain Jost,Switzerland,Switzerland,M,,1997,Open,74,71.7,195,210,220,220,140,147.5,-152.5,147.5,262.5,-275,275,275,642.5,18,SBD,Raw
Sebastian Cociña,Uruguay,Uruguay,M,,1997,Open,120,119.95,295,-305,305,305,205,-212.5,-212.5,205,255,270,-275,270,780,19,SBD,Raw
Aaron Grant Embuscado,Philippines,Philippines,M,,1997,Open,66,64.95,202.5,,,202.5,125,130,,130,250,-270,-270,250,582.5,13,SBD,Raw
Arnold Veenhof,Netherlands,Netherlands,M,,1998,Open,83,82.95,250,265,272.5,272.5,160,167.5,-170,167.5,265,277.5,290,290,730,16,SBD,Raw
Adrián Manzanares Herrero,Spain,Spain,M,,1998,Open,74,73.7,217.5,230,240,240,125,130,-135,130,260,280,-300,280,650,17,SBD,Raw
Pijus Alisauskas,Germany,Germany,M,,1998,Open,83,82.7,245,260,-267.5,260,170,180,-187.5,180,255,275,290,290,730,15,SBD,Raw
Jesus Olivares,USA,USA,M,,1998,Open,120+,181.1,425,455,,455,-250,250,-267.5,250,350,375,-410.5,375,1080,1,SBD,Raw
Alexander Örn Kárason,Iceland,Iceland,M,,1998,Open,93,92.85,250,265,-275,265,-175,175,-185,175,280,-300,-300,280,720,31,SBD,Raw
Paul Egger,Austria,Austria,M,,1998,Open,105,102.8,260,275,282.5,282.5,150,157.5,162.5,162.5,300,320,340,340,785,21,SBD,Raw
Xin Miao Koh,Singapore,Singapore,M,,1998,Open,66,65.25,210,230,245,245,130,137.5,-142.5,137.5,235,255,-270,255,637.5,6,SBD,Raw
Levent Erdem,US Virgin Islands,US Virgin Islands,M,,1998,Open,120,110.15,220,232.5,237.5,237.5,142.5,147.5,152.5,152.5,-270,-270,-270,-270,,DQ,SBD,Raw
Jochen Strubbe,Belgium,Belgium,M,,1998,Open,105,104.85,265,277.5,282.5,282.5,177.5,-182.5,182.5,182.5,295,-320,-330,295,760,25,SBD,Raw
Benjamin Rastum,Norway,Norway,M,,1999,Open,93,92.8,270,280,285,285,-172.5,172.5,180,180,270,285,-290,285,750,27,SBD,Raw
Enahoro Asein,Hungary,Hungary,M,,1999,Open,83,82.6,265,275,280,280,145,152.5,155,155,350,370.5,-380.5,370.5,805.5,2,SBD,Raw
Ian Pace,Malta,Malta,M,,1999,Open,83,82.55,205,220,227.5,227.5,125,-132.5,132.5,132.5,220,240,252.5,252.5,612.5,30,SBD,Raw
Victor Santana,Brazil,Brazil,M,,1999,Open,83,82.1,225,237.5,-245,237.5,132.5,-137.5,137.5,137.5,260,275,-282.5,275,650,27,SBD,Raw
Szilárd Bereczki-Király,Hungary,Hungary,M,,1999,Open,120,118.05,300,315,322.5,322.5,210,222.5,225,225,290,-310,310,310,857.5,7,SBD,Raw
Brian Le #1,USA,USA,M,,1999,Open,66,65.25,230,242.5,-247.5,242.5,147.5,152.5,-155,152.5,300.5,-312.5,-312.5,300.5,695.5,2,SBD,Raw
Adam Jansson,Canada,Canada,M,,1999,Open,83,82.6,270,285,-295,285,192.5,200,205,205,290,-305,-310,290,780,9,SBD,Raw
Kristóf Bence Budai,Hungary,Hungary,M,,1999,Open,120,116.7,280,300,310,310,175,190,200,200,300,312.5,325,325,835,12,SBD,Raw
Alexander Renner,Austria,Austria,M,,1999,Open,120+,147.7,285,305,310,310,215,225,230,230,310,345,360,360,900,11,SBD,Raw
Nick Manders,Canada,Canada,M,,1999,Open,83,82.55,255,262.5,265,265,160,-165,165,165,-340,340,367.5,367.5,797.5,3,SBD,Raw
Chun-Chia Fan,Chinese Taipei,Taiwan,M,,1999,Open,74,73.25,235,252.5,-265,252.5,190,200,205,205,285,300,-305,300,757.5,5,SBD,Raw
Anders Broeten Lillemoe,Norway,Norway,M,,1999,Open,120,119.75,280,295,305,305,162.5,-170,-170,162.5,325,345,-370,345,812.5,17,SBD,Raw
Nicolas Peyraud,France,France,M,,1999,Open,120,112.35,300,317.5,327.5,327.5,205,212.5,215,215,325,342.5,352.5,352.5,895,4,SBD,Raw
Thomas Delamore,New Zealand,New Zealand,M,,1999,Open,93,92.55,240,-257.5,257.5,257.5,-145,145,150,150,275,285,-295,285,692.5,36,SBD,Raw
Ishtyaq Nabi,Great Britain,UK,M,,1999,Open,59,58.9,180,-190,-190,180,125,130,135,135,232.5,250,-262.5,250,565,5,SBD,Raw
Corentin Clément,France,France,M,,2000,Open,105,104.9,305,320,327.5,327.5,197.5,205,207.5,207.5,330,350,-365,350,885,5,SBD,Raw
James Le,Australia,Australia,M,,2000,Open,83,82.55,255,270,-280,270,165,-175,-175,165,260,277.5,287.5,287.5,722.5,18,SBD,Raw
Carl Johansson,Sweden,Sweden,M,,2000,Open,74,73.65,252.5,262.5,267.5,267.5,170,177.5,182.5,182.5,305,320,328,328,778,1,SBD,Raw
Rene Caky,Switzerland,Switzerland,M,,2000,Open,105,104.1,270,,300,300,210,-220,-220,210,290,320,330,330,840,8,SBD,Raw
Temur Samkharadze,Georgia,Georgia,M,,2001,Open,120+,148.95,380,-405,-405,380,210,220,-230,220,360,375,382.5,382.5,982.5,2,SBD,Raw
Taras Melnichuk,Ukraine,Ukraine,M,,2001,Open,120,119,310,-315,-315,310,215,222.5,227.5,227.5,310,320,-330,320,857.5,8,SBD,Raw
Angelos Almouti,Greece,Greece,M,,2001,Open,83,82.3,220,-232.5,-232.5,220,135,140,-142.5,140,250,-265,265,265,625,29,SBD,Raw
Iván Campano Díaz,Spain,Spain,M,,2001,Open,59,59,192.5,205,210,210,120,125,130,130,235,250,262.5,262.5,602.5,2,SBD,Raw
Sean Isomura-Gillard,Thailand,Thailand,M,,2001,Open,93,92.7,220,235,245,245,165,175,180,180,275,287.5,-292.5,287.5,712.5,34,SBD,Raw
Liang Huang,China,China,M,,2004,Open,74,69.55,-105,105,112.5,112.5,45,55,-60,55,125,-140,140,140,307.5,22,SBD,Raw
Garmez Parks,US Virgin Islands,US Virgin Islands,M,,1965,Open,120,110,205,212.5,222.5,222.5,150,157.5,165,165,242.5,255,265,265,652.5,23,SBD,Raw
Mehdi Mafi Gholami,Iran,Iran,M,,1982,Open,120+,153.1,350,370,387.5,387.5,195,205,-210,205,315,330,-332.5,330,922.5,9,SBD,Raw
Jari Saario,Finland,Finland,M,,1985,Open,120+,148.35,315,340,-357.5,340,-187.5,187.5,-192.5,187.5,335,355,367.5,367.5,895,13,SBD,Raw
Mohammad Morad Niay Shirjouposht,Iran,Iran,M,,1988,Open,120,119.7,310,322.5,332.5,332.5,190,-195,-195,190,305,320,-330,320,842.5,11,SBD,Raw
Mirko Artosi,Italy,Italy,M,,1988,Open,93,92.55,270,285,-290,285,160,167.5,-172.5,167.5,280,300,315,315,767.5,18,SBD,Raw
Jurins Kengamu,Great Britain,UK,M,,1988,Open,83,82.6,290,-305,-305,290,167.5,175,-180,175,310,325,-330,325,790,6,SBD,Raw
Alireza Rezaei,Iran,Iran,M,,1989,Open,105,104.75,315,-327.5,-327.5,315,192.5,-197.5,197.5,197.5,285,297.5,-307.5,297.5,810,16,SBD,Raw
Wei-Chun Wu,Chinese Taipei,Taiwan,M,,1990,Open,93,92.2,275,285,290,290,175,185,190,190,250,275,-285,275,755,22,SBD,Raw
Mehdi Tahmasebi Boldaji,Iran,Iran,M,,1991,Open,93,92.8,280,290,-295,290,192.5,200,205,205,312.5,327.5,330,330,825,7,SBD,Raw
Toni Johannessen Amengual,Norway,Norway,M,,1992,Open,105,104.45,-280,280,290,290,185,192.5,200,200,320,342.5,-352.5,342.5,832.5,9,SBD,Raw
Mattia Perazzuolo,Italy,Italy,M,,1992,Open,105,102.9,290,-300,,290,180,187.5,-195,187.5,320,335,-345,335,812.5,13,SBD,Raw
Santos Gabriel Jiménez Quintero,Mexico,Mexico,M,,1992,Open,74,73.2,212.5,225,-235,225,160,170,177.5,177.5,250,270,-282.5,270,672.5,16,SBD,Raw
Tom Wewege,South Africa,South Africa,M,,1992,Open,105,103.7,260,275,-280,275,190,-202.5,-202.5,190,275,295,-300,295,760,24,SBD,Raw
Pedro Lins,Brazil,Brazil,M,,1993,Open,93,86.7,230,242.5,250,250,137.5,142.5,145,145,-240,240,-270,240,635,38,SBD,Raw
Dennis Fastelli,Italy,Italy,M,,1994,Open,74,73.5,262.5,270,277.5,277.5,127.5,132.5,137.5,137.5,270,280,292.5,292.5,707.5,10,SBD,Raw
Alessandro Messina,Italy,Italy,M,,1995,Open,83,81.2,245,255,262.5,262.5,157.5,162.5,-167.5,162.5,312.5,322.5,-330,322.5,747.5,10,SBD,Raw
Federico Murru,Italy,Italy,M,,1995,Open,66,65.7,200,212.5,-220,212.5,-150,152.5,160,160,215,225,-237.5,225,597.5,12,SBD,Raw
Jung Liu,Chinese Taipei,Taiwan,M,,1996,Open,105,103.05,265,282.5,295,295,162.5,172.5,-180,172.5,310,325,332.5,332.5,800,18,SBD,Raw
Cenk Koçak,Turkey,Turkey,M,,1996,Open,120+,143.2,335,355,370,370,230,-240,240,240,370,-390,-390,370,980,3,SBD,Raw
Naoki Terunuma,Japan,Japan,M,,1997,Open,93,92.55,280,-287.5,-287.5,280,185,190,192.5,192.5,290,-305,305,305,777.5,15,SBD,Raw
Doğukan Sari,Turkey,Turkey,M,,1998,Open,105,104.4,290,305,-312.5,305,190,-202.5,202.5,202.5,300,320,-330,320,827.5,10,SBD,Raw
Pei-Yu Wang,Chinese Taipei,Taiwan,M,,1998,Open,120+,143.15,340,360,370,370,185,195,205,205,310,330,345,345,920,10,SBD,Raw
Pieter-Francois van Zyl,South Africa,South Africa,M,,1998,Open,120+,150.85,270,290,-300,290,160,-172.5,-172.5,160,300,310,-315,310,760,18,SBD,Raw
Gavin Adin,USA,USA,M,,1998,Open,93,92.45,-302.5,310,-325,310,197.5,210,220,220,310,330,-342.5,330,860,5,SBD,Raw
Mohammed Al Masoud,Saudi Arabia,Saudi Arabia,M,,1998,Open,93,92.15,255,-270,270,270,145,155,160,160,290,310,320,320,750,26,SBD,Raw
Saleh Shetewi,Saudi Arabia,Saudi Arabia,M,,1999,Open,83,82.65,235,250,-262.5,250,142.5,147.5,150,150,250,267.5,282.5,282.5,682.5,23,SBD,Raw
Edoardo Mazzucchielli,Italy,Italy,M,,1999,Open,83,82.75,282.5,297.5,-307.5,297.5,167.5,172.5,-175,172.5,297.5,315,-322.5,315,785,8,SBD,Raw
Sean Koch,Switzerland,Switzerland,M,,2000,Open,120+,160.95,367.5,387.5,-400,387.5,220,235,-240,235,300,320,335,335,957.5,5,SBD,Raw
Susan Elwyn,US Virgin Islands,US Virgin Islands,F,,1947,Open,52,48.2,65,-75,82.5,82.5,30,-37.5,-37.5,30,-102.5,105,-125,105,217.5,24,SBD,Raw
Sara Soto Guzman,Thailand,Thailand,F,,1966,Open,63,61.25,100,-110,110,110,60,62.5,65,65,-160,160,-177.5,160,335,18,SBD,Raw
Elizabeth Craven,Australia,Australia,F,,1975,Open,57,56.5,-140,145,-150,145,75,80,82.5,82.5,162.5,172.5,180,180,407.5,20,SBD,Raw
Cícera Tavares,Brazil,Brazil,F,,1976,Open,69,68.45,180,-187.5,-187.5,180,95,-100,-100,95,195,205,-220,205,480,10,SBD,Raw
Kimberly Walford,US Virgin Islands,US Virgin Islands,F,,1978,Open,76,74.8,175,180,-185,180,107.5,112.5,115,115,230,240,-247.5,240,535,6,SBD,Raw
Elise Rummens,Belgium,Belgium,F,,1981,Open,57,56.15,127.5,132.5,137.5,137.5,72.5,-75,-75,72.5,170,182.5,192.5,192.5,402.5,23,SBD,Raw
Nataliia Zhukovska,Ukraine,Ukraine,F,,1981,Open,63,62.85,145,150,152.5,152.5,90,92.5,-95,92.5,200,-205,-205,200,445,10,SBD,Raw
Monique Boddie,US Virgin Islands,US Virgin Islands,F,,1982,Open,84+,112.1,200,207.5,212.5,212.5,130,135,-137.5,135,230,-237.5,-237.5,230,577.5,8,SBD,Raw
Mei-Xiang Liu,Chinese Taipei,Taiwan,F,,1983,Open,47,46.65,110,120,122.5,122.5,50,55,-60,55,140,147.5,-152.5,147.5,325,12,SBD,Raw
Maja Vaha,Malta,Malta,F,,1983,Open,84+,90,-130,130,140,140,82.5,87.5,-92.5,87.5,155,162.5,167.5,167.5,395,13,SBD,Raw
Kristín Þórhallsdóttir,Iceland,Iceland,F,,1984,Open,84,83.55,-210,210,-222.5,210,115,122.5,125,125,220,230,-240,230,565,2,SBD,Raw
Tasmin Campbell,Great Britain,UK,F,,1984,Open,69,68.5,162.5,170,-175,170,112.5,117.5,120,120,207.5,215,222.5,222.5,512.5,5,SBD,Raw
Sahyuri Lalime,Belgium,Belgium,F,,1984,Open,63,62.6,162.5,172.5,180,180,82.5,87.5,-92.5,87.5,187.5,195,-200,195,462.5,7,SBD,Raw
Dayna McNeal,USA,USA,F,,1984,Open,76,74.7,187.5,195,200,200,92.5,97.5,-102.5,97.5,230,240,-262,240,537.5,5,SBD,Raw
Temitope Nuga,Great Britain,UK,F,,1985,Open,84,82.6,180,192.5,200,200,102.5,110,115,115,217.5,230,240,240,555,4,SBD,Raw
Daniela Vella,Malta,Malta,F,,1985,Open,84,82.1,125,-135,135,135,57.5,60,62.5,62.5,160,170,180,180,377.5,19,SBD,Raw
Farzana Botha,South Africa,South Africa,F,,1985,Open,52,51.75,95,-102.5,102.5,102.5,65,70,-72.5,70,140,145,152.5,152.5,325,22,SBD,Raw
Irani Rodrigues Barbosa,Brazil,Brazil,F,,1986,Open,52,51.5,112.5,-115,115,115,72.5,-77.5,-77.5,72.5,137.5,142.5,147.5,147.5,335,20,SBD,Raw
Ellinor Svensson,Sweden,Sweden,F,,1986,Open,84,82.65,175,185,190,190,90,95,97.5,97.5,200,210,-215,210,497.5,11,SBD,Raw
Jonna Alanko,Finland,Finland,F,,1986,Open,69,68.2,145,152.5,157.5,157.5,82.5,87.5,-92.5,87.5,170,177.5,-182.5,177.5,422.5,20,SBD,Raw
Fabiana Bermudez,Malta,Malta,F,,1986,Open,69,63.2,-90,92.5,97.5,97.5,55,60,-65,60,125,130,-135,130,287.5,23,SBD,Raw
Ana Lucia Ruiz Vasquez,Peru,Peru,F,,1986,Open,47,46.95,120,125,127.5,127.5,57.5,-60,-60,57.5,140,150,-155,150,335,9,SBD,Raw
Anna-Lena Bellqvist,Sweden,Sweden,F,,1987,Open,84+,152.75,-240,240,250,250,112.5,117.5,125,125,-217.5,-217.5,217.5,217.5,592.5,7,SBD,Raw
Shanel Mallia,Malta,Malta,F,,1987,Open,52,50.4,107.5,110,112.5,112.5,55,60,62.5,62.5,120,125,127.5,127.5,302.5,23,SBD,Raw
Cassie Bordes,US Virgin Islands,US Virgin Islands,F,,1987,Open,84,82.6,145,155,-170,155,75,85,-90,85,175,-190,-190,175,415,18,SBD,Raw
Emily zur Linden,Canada,Canada,F,,1987,Open,63,61.95,170,175,180,180,95,100,102.5,102.5,182.5,190,-202.5,190,472.5,6,SBD,Raw
Sheila Badaseraye,Spain,Spain,F,,1987,Open,63,60.95,152.5,162.5,-167.5,162.5,85,90,-92.5,90,160,175,-182.5,175,427.5,11,SBD,Raw
Haya Al-Qassar,Kuwait,Kuwait,F,,1987,Open,57,56.1,130,135,-140,135,62.5,67.5,-70,67.5,172.5,-180,180,180,382.5,26,SBD,Raw
Mira Lahtinen,Finland,Finland,F,,1987,Open,76,75.15,162.5,170,177.5,177.5,112.5,117.5,120,120,185,200,-210,200,497.5,12,SBD,Raw
Lorna Cachia,Malta,Malta,F,,1988,Open,63,62.25,145,147.5,-152.5,147.5,65,-70,-70,65,160,-165,-165,160,372.5,15,SBD,Raw
Sarah Klein #1,Germany,Germany,F,,1988,Open,52,50.6,135,140,142.5,142.5,77.5,82.5,-85,82.5,170,180,185,185,410,7,SBD,Raw
Katja Jørgensen,Denmark,Denmark,F,,1988,Open,84,81.05,175,185,190,190,102.5,107.5,110,110,205,217.5,225,225,525,6,SBD,Raw
Andrea Riley,US Virgin Islands,US Virgin Islands,F,,1988,Open,57,56.95,172.5,-177.5,177.5,177.5,87.5,92.5,-95,92.5,182.5,-192.5,-205,182.5,452.5,6,SBD,Raw
Stina Lindell,Finland,Finland,F,,1988,Open,69,68.35,-167.5,170,177.5,177.5,112.5,-117.5,-117.5,112.5,170,180,-200,180,470,13,SBD,Raw
Dawn Steacy,Ireland,Ireland,F,,1988,Open,52,51.55,112.5,120,-122.5,120,80,85,-87.5,85,152.5,160,165,165,370,14,SBD,Raw
Meghan Scanlon,USA,USA,F,,1988,Open,63,62.75,180,187.5,195,195,120,-125,127.5,127.5,192.5,205,210,210,532.5,2,SBD,Raw
Bonica Brown,USA,USA,F,,1988,Open,84+,144.35,270,280.5,289,289,145,152.5,-155,152.5,-240,-240,-240,-240,,DQ,SBD,Raw
Marte Kjenner,Norway,Norway,F,,1989,Open,69,68.55,180,192.5,-197.5,192.5,115,120,-122.5,120,205,220,-227.5,220,532.5,2,SBD,Raw
Zahrah Mohammed Al Ammar,Saudi Arabia,Saudi Arabia,F,,1989,Open,63,62.9,137.5,145,150,150,67.5,75,-77.5,75,175,182.5,190,190,415,12,SBD,Raw
Olivia Perotti,South Africa,South Africa,F,,1989,Open,84,82.05,165,175,-182.5,175,75,80,82.5,82.5,160,175,-182.5,175,432.5,17,SBD,Raw
Catherine Portelli,Malta,Malta,F,,1989,Open,84+,122.5,-165,165,170,170,70,75,77.5,77.5,200,210,220,220,467.5,11,SBD,Raw
Mehpare Atay,Turkey,Turkey,F,,1989,Open,52,51.45,135,140,142.5,142.5,55,60,-62.5,60,135,142.5,-147.5,142.5,345,17,SBD,Raw
Lisette I Hansen,Denmark,Denmark,F,,1989,Open,47,46.8,107.5,112.5,117.5,117.5,62.5,65,,65,130,137.5,-147.5,137.5,320,13,SBD,Raw
Madelein Canto,Argentina,Argentina,F,,1989,Open,47,46.55,115,120,122.5,122.5,65,-70,-70,65,140,-145,145,145,332.5,10,SBD,Raw
Malgorzata Becker,Switzerland,Switzerland,F,,1989,Open,76,74.9,150,155,-157.5,155,90,-92.5,,90,180,190,200,200,445,24,SBD,Raw
Natalie Kuan,Singapore,Singapore,F,,1990,Open,47,46.75,95,102.5,105,105,57.5,-62.5,62.5,62.5,127.5,135,140,140,307.5,16,SBD,Raw
Noémie Allabert,France,France,F,,1990,Open,52,52,-162.5,162.5,-170,162.5,82.5,87.5,-90,87.5,187.5,195,200,200,450,2,SBD,Raw
Aleksandra Aranitovic,Serbia,Serbia,F,,1990,Open,52,51.9,-145,-152.5,152.5,152.5,92.5,95,97.5,97.5,170,175,-182.5,175,425,4,SBD,Raw
Pantea Supanetz,Austria,Austria,F,,1990,Open,63,62.9,157.5,-167.5,167.5,167.5,100,105,107.5,107.5,182.5,-195,-200,182.5,457.5,8,SBD,Raw
Vicky Kijumnuayporn,Australia,Australia,F,,1990,Open,47,46.85,135,142.5,-145,142.5,85,87.5,90,90,157.5,167.5,-172.5,167.5,400,5,SBD,Raw
Amanda Seow,Singapore,Singapore,F,,1990,Open,57,56.5,135,-142.5,142.5,142.5,82.5,87.5,-92.5,87.5,175,185,187.5,187.5,417.5,13,SBD,Raw
Lyudmila Bichok,Ukraine,Ukraine,F,,1990,Open,76,75.7,177.5,185,190,190,110,117.5,-120,117.5,197.5,210,-217.5,210,517.5,9,SBD,Raw
Deshawn Larrimore,US Virgin Islands,US Virgin Islands,F,,1990,Open,63,62.2,-140,140,142.5,142.5,-72.5,72.5,-75,72.5,172.5,175,-185,175,390,13,SBD,Raw
Stefanie Verhulst,Belgium,Belgium,F,,1990,Open,52,51.2,117.5,-125,-125,117.5,65,67.5,-70,67.5,135,145,150,150,335,19,SBD,Raw
Nada Al Qallaf,Kuwait,Kuwait,F,,1991,Open,47,45.35,95,102.5,107.5,107.5,57.5,60,62.5,62.5,135,140,-150,140,310,15,SBD,Raw
Valentina Presenti,Italy,Italy,F,,1991,Open,57,56.15,150,157.5,-162.5,157.5,75,-80,-80,75,165,175,180,180,412.5,14,SBD,Raw
Chelsea Savit,USA,USA,F,,1991,Open,69,68.9,170,180,187.5,187.5,117.5,122.5,127.5,127.5,-205,210,215,215,530,4,SBD,Raw
Heather Connor,USA,USA,F,,1991,Open,47,46.45,-132.5,-132.5,132.5,132.5,70,75,-77.5,75,182.5,192.5,200,200,407.5,3,SBD,Raw
Sovannphaktra Pal,France,France,F,,1991,Open,57,56.85,165,172.5,-175,172.5,82.5,-90,-90,82.5,170,180,-190,180,435,8,SBD,Raw
Nino Tchrikishvili,Georgia,Georgia,F,,1991,Open,69,68.7,-160,-160,160,160,85,92.5,-95,92.5,200,-215,-215,200,452.5,17,SBD,Raw
Kim Grech,Malta,Malta,F,,1991,Open,76,72.2,105,112.5,125,125,57.5,62.5,67.5,67.5,120,130,142.5,142.5,335,25,SBD,Raw
Matilda Hjälle,Sweden,Sweden,F,,1991,Open,84+,106.75,205,215,222.5,222.5,142.5,150,155,155,195,205,215,215,592.5,6,SBD,Raw
Adejoke Adetayo,Great Britain,UK,F,,1991,Open,57,56.05,157.5,167.5,172.5,172.5,65,70,72.5,72.5,180,195,200,200,445,7,SBD,Raw
Brittany Schlater,Canada,Canada,F,,1991,Open,84+,127.6,255,270,281,281,142.5,150,155,155,235,247.5,257.5,257.5,693.5,1,SBD,Raw
Mayara Soares,Brazil,Brazil,F,,1992,Open,47,46.7,117.5,125,-130,125,62.5,65,67.5,67.5,122.5,130,135,135,327.5,11,SBD,Raw
Yuka Okada,Japan,Japan,F,,1992,Open,69,65.75,132.5,140,145,145,75,80,-85,80,180,190,200,200,425,19,SBD,Raw
Alison O'Reilly,Ireland,Ireland,F,,1992,Open,84,83.3,182.5,190,195,195,122.5,127.5,-130,127.5,192.5,205,210,210,532.5,5,SBD,Raw
Xinyu Liang,Australia,Australia,F,,1992,Open,52,50.55,-117.5,-117.5,117.5,117.5,62.5,-65,-65,62.5,145,152.5,160,160,340,18,SBD,Raw
Christine Castro,Canada,Canada,F,,1992,Open,69,69,160,-165,165,165,90,-95,-95,90,187.5,197.5,205,205,460,14,SBD,Raw
Emma Zilberman-Vegas,Canada,Canada,F,,1992,Open,57,56.85,140,145,-147.5,145,82.5,-87.5,-87.5,82.5,165,172.5,180,180,407.5,21,SBD,Raw
Julie Fosseide,Norway,Norway,F,,1992,Open,57,56.75,135,140,-145,140,82.5,85,87.5,87.5,155,162.5,-170,162.5,390,25,SBD,Raw
Amélie Mierger,France,France,F,,1992,Open,84+,147.9,240,245,250,250,155,160,-165,160,210,217.5,232.5,232.5,642.5,4,SBD,Raw
Minami Satoh,Japan,Japan,F,,1992,Open,84+,105.4,-180,-180,-180,-180,90,-97.5,-97.5,90,165,175,-180,175,,DQ,SBD,Raw
Farhanna Farid,Singapore,Singapore,F,,1992,Open,52,51.5,120,127.5,-132.5,127.5,62.5,67.5,70,70,190,197.5,203,203,400.5,8,SBD,Raw
Rosa Erimo Sabadell,Spain,Spain,F,,1992,Open,76,75.25,157.5,170,180,180,90,97.5,100,100,200,215,225,225,505,10,SBD,Raw
Karlina Tongotea,New Zealand,New Zealand,F,,1992,Open,76,75.65,215,222.5,225.5,225.5,115,120,122.5,122.5,235,242.5,245,245,593,1,SBD,Raw
Jelena Bijelic,Austria,Austria,F,,1992,Open,52,51.85,122.5,130,135,135,80,85,-90,85,165,175,-180,175,395,10,SBD,Raw
Joy Nnamani,Great Britain,UK,F,,1992,Open,63,62.5,167.5,177.5,-182.5,177.5,95,100,102.5,102.5,207.5,225,-240.5,225,505,4,SBD,Raw
Iris Scholten,Netherlands,Netherlands,F,,1992,Open,69,67.45,187.5,195,-200,195,110,-115,-117.5,110,185,195,-202.5,195,500,9,SBD,Raw
Emma McDermott,Ireland,Ireland,F,,1992,Open,76,74.7,150,160,167.5,167.5,90,95,-97.5,95,182.5,197.5,207.5,207.5,470,20,SBD,Raw
Jenny Heyerdahl Bryhni,Norway,Norway,F,,1993,Open,84,80.6,157.5,167.5,-177.5,167.5,-107.5,-107.5,107.5,107.5,162.5,172.5,180,180,455,14,SBD,Raw
Sara Ellegaard Andreasen,Denmark,Denmark,F,,1993,Open,57,56.45,117.5,125,130,130,92.5,97.5,100,100,160,170,177.5,177.5,407.5,18,SBD,Raw
Christina Eggel,Austria,Austria,F,,1993,Open,76,75.5,165,172.5,177.5,177.5,87.5,92.5,95,95,195,207.5,-212.5,207.5,480,16,SBD,Raw
Anastasia Hein,Germany,Germany,F,,1993,Open,57,56.45,150,155,-157.5,155,90,92.5,95,95,170,177.5,-182.5,177.5,427.5,11,SBD,Raw
Anna Kronborg Haar,Denmark,Denmark,F,,1993,Open,84,82.6,172.5,182.5,-187.5,182.5,90,95,-97.5,95,170,180,185,185,462.5,13,SBD,Raw
Mylène van der Spek,Netherlands,Netherlands,F,,1993,Open,57,56.8,155,160,-162.5,160,87.5,90,-92.5,90,170,-180,-180,170,420,12,SBD,Raw
Kristýna Rakovská,Czechia,Czechia,F,,1993,Open,76,75.4,165,175,180,180,95,100,-102.5,100,187.5,200,-205,200,480,15,SBD,Raw
Claire Nunan,New Zealand,New Zealand,F,,1993,Open,84,83.2,175,185,-190,185,110,-115,115,115,205,215,222.5,222.5,522.5,8,SBD,Raw
Lee Yuen Ching Stella Audrey,Hong Kong,Hong Kong,F,,1993,Open,52,51.55,137.5,142.5,-147.5,142.5,72.5,77.5,-80,77.5,145,152.5,-157.5,152.5,372.5,12,SBD,Raw
Katja Babič,Slovenia,Slovenia,F,,1993,Open,57,56.45,142.5,147.5,152.5,152.5,75,80,82.5,82.5,160,167.5,172.5,172.5,407.5,19,SBD,Raw
Daiana La Bella,Argentina,Argentina,F,,1993,Open,57,56.2,152.5,162.5,167.5,167.5,75,80,82.5,82.5,150,160,-162.5,160,410,17,SBD,Raw
Desiree Wilkins,US Virgin Islands,US Virgin Islands,F,,1993,Open,84+,91.85,182.5,187.5,192.5,192.5,82.5,92.5,95,95,182.5,195,-215,195,482.5,10,SBD,Raw
Maja Bonde,Denmark,Denmark,F,,1993,Open,76,75.8,157.5,165,172.5,172.5,95,100,-102.5,100,185,200,,200,472.5,18,SBD,Raw
Laura Rey Villameá,Spain,Spain,F,,1993,Open,57,55.95,127.5,132.5,137.5,137.5,-82.5,-82.5,-82.5,-82.5,170,180,185,185,,DQ,SBD,Raw
Nicole Coopoosamy,South Africa,South Africa,F,,1993,Open,76,75.6,-157.5,157.5,-162.5,157.5,87.5,92.5,-95,92.5,190,207.5,-212.5,207.5,457.5,23,SBD,Raw
Prescillia Bavoil,France,France,F,,1993,Open,69,65.25,195,205,211.5,211.5,105,110,115,115,210,222.5,-240.5,222.5,549,1,SBD,Raw
Ubong Idem,Hungary,Hungary,F,,1994,Open,84,83.5,170,180,190,190,95,100,102.5,102.5,177.5,190,200,200,492.5,12,SBD,Raw
Stefanie Gierlinger,Austria,Austria,F,,1994,Open,84+,121.35,187.5,197.5,205,205,105,-112.5,112.5,112.5,200,210,-220,210,527.5,9,SBD,Raw
Carola Garra,Italy,Italy,F,,1994,Open,63,62.9,195,202.5,207.5,207.5,135,142.5,-145.5,142.5,192.5,200,207.5,207.5,557.5,1,SBD,Raw
Pleun Dekkers,Netherlands,Netherlands,F,,1994,Open,52,51.85,160,167.5,-170,167.5,82.5,87.5,90,90,162.5,-170,-170,162.5,420,5,SBD,Raw
Nour Al Jundi,Thailand,Thailand,F,,1994,Open,47,46.5,110,-115,-115,110,77.5,82.5,-87.5,82.5,115,122.5,-130,122.5,315,14,SBD,Raw
Bobbie Butters,Great Britain,UK,F,,1994,Open,57,56.7,175,182.5,-186,182.5,102.5,107.5,-110,107.5,170,180,182.5,182.5,472.5,4,SBD,Raw
Mathilde Oestergaard,Denmark,Denmark,F,,1994,Open,57,56.9,132.5,140,-145,140,77.5,-82.5,82.5,82.5,160,170,-177.5,170,392.5,24,SBD,Raw
Rebecca Tancevski,Australia,Australia,F,,1994,Open,84,83.45,147.5,160,-167.5,160,80,85,-87.5,85,175,187.5,190,190,435,16,SBD,Raw
Schae Zarew,Australia,Australia,F,,1994,Open,63,62.25,170,177.5,-182.5,177.5,97.5,102.5,105,105,-190,190,200,200,482.5,5,SBD,Raw
Alexa Pentopoulos,South Africa,South Africa,F,,1994,Open,52,50.95,120,-127.5,127.5,127.5,52.5,57.5,-60,57.5,125,135,145,145,330,21,SBD,Raw
Marika Zandecka,Poland,Poland,F,,1995,Open,69,68.75,180,187.5,195,195,97.5,102.5,-105,102.5,197.5,207.5,-212.5,207.5,505,7,SBD,Raw
Jessica Buettner,Canada,Canada,F,,1995,Open,76,75.35,207.5,215,220,220,100,105,107.5,107.5,240,-252.5,-263,240,567.5,3,SBD,Raw
Lea Schreiner,Germany,Germany,F,,1995,Open,84,77.55,180,187.5,-192.5,187.5,105,107.5,-110,107.5,210,217.5,222.5,222.5,517.5,10,SBD,Raw
Miriam Amri,Netherlands,Netherlands,F,,1995,Open,57,56.7,147.5,157.5,-162.5,157.5,77.5,82.5,-85,82.5,182.5,192.5,-197.5,192.5,432.5,9,SBD,Raw
Martina Malzová,Czechia,Czechia,F,,1995,Open,52,51.65,122.5,127.5,132.5,132.5,65,-67.5,67.5,67.5,165,172.5,-177.5,172.5,372.5,13,SBD,Raw
Annalisa Motta,Italy,Italy,F,,1995,Open,47,45.65,120,125,-130,125,72.5,77.5,-80,77.5,142.5,150,-157.5,150,352.5,7,SBD,Raw
María Estela Cuervo Usano,Spain,Spain,F,,1995,Open,52,51.75,135,145,-150,145,-67.5,67.5,-72.5,67.5,140,150,-160,150,362.5,16,SBD,Raw
Alessandra Cernigliaro,Italy,Italy,F,,1995,Open,57,56.6,167.5,-175,-175,167.5,90,95,97.5,97.5,170,180,187.5,187.5,452.5,5,SBD,Raw
Natalie Laalaai,Australia,Australia,F,,1995,Open,84+,137.9,232.5,242.5,250,250,115,120,122.5,122.5,258,268,-275.5,268,640.5,5,SBD,Raw
Rashenna Grzybowski,Canada,Canada,F,,1995,Open,76,75.3,177.5,185,-190,185,92.5,100,102.5,102.5,190,202.5,-207.5,202.5,490,13,SBD,Raw
Monica de La Torre,Mexico,Mexico,F,,1995,Open,52,51.85,125,132.5,135,135,90,92.5,95,95,150,160,-165,160,390,11,SBD,Raw
Marie Jenevieve Joaquin,Canada,Canada,F,,1995,Open,52,51,145,152.5,157.5,157.5,80,85,-87.5,85,165,172.5,-177.5,172.5,415,6,SBD,Raw
Jacqueline Ulrich,Germany,Germany,F,,1995,Open,57,56.3,150,155,160,160,85,90,92.5,92.5,-170,170,177.5,177.5,430,10,SBD,Raw
Blanka Bartoňková,Czechia,Czechia,F,,1995,Open,57,55.4,140,150,157.5,157.5,70,75,-80,75,160,170,177.5,177.5,410,16,SBD,Raw
Edyta Marciniszyn,Poland,Poland,F,,1996,Open,69,67.85,155,165,,165,80,85,-87.5,85,155,165,-170,165,415,21,SBD,Raw
Megan Leighton,South Africa,South Africa,F,,1996,Open,63,62.8,135,-142.5,-142.5,135,62.5,65,67.5,67.5,150,160,-165,160,362.5,16,SBD,Raw
Kai-Hsuan Hsieh,Chinese Taipei,Taiwan,F,,1996,Open,57,55.25,135,145,157.5,157.5,65,75,-82.5,75,150,165,172.5,172.5,405,22,SBD,Raw
Sophia Ellis,Great Britain,UK,F,,1996,Open,76,74.7,162.5,172.5,177.5,177.5,110,115,120,120,225,237.5,245,245,542.5,4,SBD,Raw
Esmee Dijjers,Netherlands,Netherlands,F,,1996,Open,63,63,150,157.5,160,160,80,82.5,85,85,195,205,210,210,455,9,SBD,Raw
Evie Corrigan,New Zealand,New Zealand,F,,1996,Open,52,51.9,155,160,162.5,162.5,95,97.5,100,100,190,197.5,-203,197.5,460,1,SBD,Raw
Megan-Li Smith,New Zealand,New Zealand,F,,1996,Open,52,51.85,160,165,167.5,167.5,87.5,90,-92.5,90,167.5,175,180,180,437.5,3,SBD,Raw
Brittany Romas,Australia,Australia,F,,1996,Open,76,71.35,167.5,175,180,180,97.5,102.5,105,105,187.5,197.5,-200,197.5,482.5,14,SBD,Raw
Ana Lores Fernández,Spain,Spain,F,,1996,Open,47,46.5,127.5,135,142.5,142.5,60,65,-67.5,65,130,137.5,142.5,142.5,350,8,SBD,Raw
Hema Govind,New Zealand,New Zealand,F,,1996,Open,84,83.85,190,200,-205,200,107.5,112.5,-117.5,112.5,195,205,210,210,522.5,9,SBD,Raw
Sonia Gonçalves Da Silva,Germany,Germany,F,,1996,Open,69,66.9,155,162.5,167.5,167.5,85,90,92.5,92.5,177.5,187.5,195,195,455,15,SBD,Raw
Annie Nelson,Great Britain,UK,F,,1996,Open,69,68.65,-175,175,190,190,100,105,-107.5,105,195,207.5,-215,207.5,502.5,8,SBD,Raw
Sonita Muluh,Belgium,Belgium,F,,1996,Open,84+,123.05,260,277.5,285.5,285.5,135,-142.5,142.5,142.5,245,260.5,-267.5,260.5,688.5,2,SBD,Raw
Tuulia Lohivuo,Finland,Finland,F,,1997,Open,76,75.3,165,172.5,-177.5,172.5,97.5,102.5,107.5,107.5,180,-187.5,-187.5,180,460,22,SBD,Raw
Barbora Josková,Czechia,Czechia,F,,1997,Open,69,68.4,150,-157.5,-157.5,150,100,-105,-105,100,185,-192.5,192.5,192.5,442.5,18,SBD,Raw
Ziana Azariah,Great Britain,UK,F,,1997,Open,84,83.9,190,200,207.5,207.5,95,100,102.5,102.5,225,237.5,247.5,247.5,557.5,3,SBD,Raw
Bruna Bisol,Brazil,Brazil,F,,1997,Open,69,68.4,172.5,180,185,185,87.5,92.5,95,95,182.5,190,197.5,197.5,477.5,11,SBD,Raw
Amanda Lawrence #1,USA,USA,F,,1997,Open,84,83.65,230,242.5,249,249,122.5,127.5,130,130,242.5,257.5,-267.5,257.5,636.5,1,SBD,Raw
Karin Angelini,Italy,Italy,F,,1997,Open,47,46.9,122.5,127.5,-132.5,127.5,65,70,72.5,72.5,140,150,160,160,360,6,SBD,Raw
Nur Nadhirah Amran,Singapore,Singapore,F,,1997,Open,84+,108.6,155,165,172.5,172.5,85,92.5,-95,92.5,167.5,177.5,-185,177.5,442.5,12,SBD,Raw
Sami DePass,Jamaica,Jamaica,F,,1997,Open,76,75.2,175,185,195,195,100,105,110,110,205,217.5,227.5,227.5,532.5,7,SBD,Raw
Enikő Tóth,Hungary,Hungary,F,,1998,Open,76,75,157.5,167.5,175,175,90,-95,95,95,177.5,192.5,-200,192.5,462.5,21,SBD,Raw
Jorill Nese,Norway,Norway,F,,1998,Open,76,73.5,162.5,172.5,180,180,100,105,107.5,107.5,165,175,182.5,182.5,470,19,SBD,Raw
Angelika Szaro,Poland,Poland,F,,1998,Open,63,62.7,112.5,117.5,-122.5,117.5,65,-67.5,67.5,67.5,155,162.5,-167.5,162.5,347.5,17,SBD,Raw
Sara Naldi,Italy,Italy,F,,1998,Open,69,66.25,175,185,192.5,192.5,97.5,102.5,105,105,207.5,-217.5,-222.5,207.5,505,6,SBD,Raw
Paula Fuentes Tubella,Spain,Spain,F,,1998,Open,84,81.15,162.5,-172.5,175,175,87.5,-92.5,-92.5,87.5,175,190,-200,190,452.5,15,SBD,Raw
Viktoria Druziaka,Ukraine,Ukraine,F,,1998,Open,52,51.9,145,152.5,-157.5,152.5,85,90,92.5,92.5,142.5,150,155,155,400,9,SBD,Raw
Mia Schjøtt Irving,Denmark,Denmark,F,,1998,Open,69,68.9,157.5,165,172.5,172.5,80,82.5,85,85,185,197.5,-207.5,197.5,455,16,SBD,Raw
Mara Hames,Germany,Germany,F,,1998,Open,76,75.1,175,182.5,-190,182.5,95,100,-105,100,177.5,185,190,190,472.5,17,SBD,Raw
Sara Sanchez-Manjavacas Ruiz,Spain,Spain,F,,1998,Open,76,75.45,167.5,177.5,187.5,187.5,105,112.5,-115,112.5,200,-215,-227.5,200,500,11,SBD,Raw
Zoé Coinne,Belgium,Belgium,F,,1998,Open,57,56.3,132.5,137.5,-140,137.5,75,80,82.5,82.5,130,140,-145,140,360,27,SBD,Raw
Jewel Tasi,New Zealand,New Zealand,F,,1998,Open,84+,120.05,252.5,265,277.5,277.5,120,127.5,-132.5,127.5,222.5,237.5,242.5,242.5,647.5,3,SBD,Raw
Kelly Millecamps,France,France,F,,1998,Open,84,82.05,200,210,-217.5,210,95,-102.5,-102.5,95,205,220,-230,220,525,7,SBD,Raw
Chiara Bernardi,Italy,Italy,F,,1998,Open,63,62.4,-182.5,185,-192.5,185,107.5,-115,115,115,202.5,215,220,220,520,3,SBD,Raw
Natalie Richards #1,USA,USA,F,,1998,Open,57,55.8,165,172.5,180,180,97.5,105,107.5,107.5,200,215,225,225,512.5,1,SBD,Raw
Renata Touma,Brazil,Brazil,F,,1998,Open,63,62.85,142.5,-147.5,-147.5,142.5,80,85,-87.5,85,157.5,-165,-165,157.5,385,14,SBD,Raw
Giulia Cunha Costa Carvalho,Brazil,Brazil,F,,1999,Open,52,51.05,127.5,-132.5,135,135,72.5,75,77.5,77.5,140,150,155,155,367.5,15,SBD,Raw
Agata Markowska,Poland,Poland,F,,1999,Open,57,54.5,105,110,115,115,70,72.5,-75,72.5,135,142.5,-150,142.5,330,28,SBD,Raw
Dariya Iskiv,Ukraine,Ukraine,F,,1999,Open,69,68.7,170,-175,-177.5,170,-105,105,107.5,107.5,187.5,195,-200,195,472.5,12,SBD,Raw
Aurélie Nguyen,Canada,Canada,F,,1999,Open,47,46.75,125,132.5,137.5,137.5,-82.5,82.5,85,85,167.5,177.5,185,185,407.5,4,SBD,Raw
Vilma Olsson,Sweden,Sweden,F,,1999,Open,76,73.95,195,202.5,210,210,110,115,-120,115,180,200,-205,200,525,8,SBD,Raw
Maiara Da Silva Días,Spain,Spain,F,,1999,Open,57,56.65,170,177.5,-180,177.5,85,87.5,90,90,190,197.5,205,205,472.5,3,SBD,Raw
Veronica Manning,New Zealand,New Zealand,F,,1999,Open,69,68.5,132.5,137.5,-140,137.5,82.5,85,87.5,87.5,167.5,177.5,-185,177.5,402.5,22,SBD,Raw
Dana Ye-Lee,New Zealand,New Zealand,F,,1999,Open,57,56.25,137.5,-145,145,145,95,97.5,100,100,160,167.5,-172.5,167.5,412.5,15,SBD,Raw
Jade Jacob,France,France,F,,2001,Open,57,56.65,172.5,180,182.5,182.5,95,-97.5,97.5,97.5,215,222.5,-232.5,222.5,502.5,2,SBD,Raw
Tiffany Chapon,France,France,F,,2001,Open,47,46.9,150,157.5,-160,157.5,95,99.5,-100.5,99.5,160,167.5,-172.5,167.5,424.5,1,SBD,Raw
Jessica Espinal,USA,USA,F,,2001,Open,47,46.5,132.5,140,142.5,142.5,85,90,95,95,162.5,170,175,175,412.5,2,SBD,Raw
Clara Peyraud,France,France,F,,2002,Open,69,68.85,170,177.5,182.5,182.5,115,120,-125,120,212.5,222.5,227.5,227.5,530,3,SBD,Raw
Agata Sitko,Poland,Poland,F,,2002,Open,76,75.6,190,195,197.5,197.5,145,153,-156,153,220,230,240,240,590.5,2,SBD,Raw
