Division,WeightClassKg,Place,Name,Team,BodyweightKg,Best3SquatKg,Best3BenchKg,Best3DeadliftKg,TotalKg,Equipment,Event,Sex
Boys,55.79,1,Brodie Cantu,Dawson,51.8,102.06,56.7,115.67,274.42,Single-ply,SBD,M
Boys,55.79,2,Tristin Ussery,Blooming Grove,51.89,95.25,54.43,95.25,244.94,Single-ply,SBD,M
Boys,55.79,1,Will Miller,Dawson,55.52,129.27,68.04,154.22,351.53,Single-ply,SBD,M
Boys,55.79,2,Jesus Perez,Kemp,53.61,136.08,79.38,133.81,349.27,Single-ply,SBD,M
Boys,55.79,3,Jacob Stanford,Riesel,52.34,88.45,47.63,102.06,238.14,Single-ply,SBD,M
Boys,55.79,4,Dillon McCastlan,Italy,53.16,90.72,49.9,97.52,238.14,Single-ply,SBD,M
Boys,59.87,DQ,Morgan Adams #2,Blooming Grove,55.88,108.86,,,,Single-ply,SBD,M
Boys,59.87,1,Ezra Zepeda,Red Oak Life,58.97,158.76,81.65,195.04,435.45,Single-ply,SBD,M
Boys,59.87,2,Austin Dennie,Kemp,57.79,163.29,102.06,163.29,428.64,Single-ply,SBD,M
Boys,59.87,3,Jimmy Kimbrell,Kemp,59.24,158.76,79.38,163.29,401.43,Single-ply,SBD,M
Boys,59.87,4,Jaquay Brown,Milford,59.6,154.22,83.91,163.29,401.43,Single-ply,SBD,M
Boys,59.87,5,Tristian Jordan,Corsicana Mildred,59.69,149.69,90.72,149.69,390.09,Single-ply,SBD,M
Boys,59.87,6,DeAndre Jones,Dallas Life Oak Cliff,59.06,136.08,83.91,151.95,371.95,Single-ply,SBD,M
Boys,59.87,6,DeAndre Jones,Dallas Life Oak Cliff,59.06,136.08,83.91,151.95,371.95,Single-ply,SBD,M
Boys,59.87,7,Bobby Adams #2,Riesel,57.79,140.61,72.57,124.74,337.93,Single-ply,SBD,M
Boys,59.87,8,Luke Elkins,Corsicana,59.33,120.2,70.31,133.81,324.32,Single-ply,SBD,M
Boys,59.87,9,Casey Stevevson,Rio Vista,58.06,122.47,74.84,120.2,317.51,Single-ply,SBD,M
Boys,67.13,10,Keith Kayser,Milford,59.96,117.93,52.16,117.93,288.03,Single-ply,SBD,M
Boys,67.13,DQ,Tristian Warmack,Blooming Grove,60.1,68.04,61.23,,,Single-ply,SBD,M
Boys,67.13,1,Dylan Haralson,Axtell,66.22,238.14,104.33,238.14,580.6,Single-ply,SBD,M
Boys,67.13,2,Olice Rogers,Kemp,67.13,215.46,124.74,208.65,548.85,Single-ply,SBD,M
Boys,67.13,3,Jared Arey,Teague,64.68,204.12,97.52,197.31,498.95,Single-ply,SBD,M
Boys,74.84,4,Eduardo Jaimes,Riesel,67.31,208.65,104.33,158.76,471.74,Single-ply,SBD,M
Boys,67.13,5,Kacie Crossland,Kemp,66.68,167.83,95.25,190.51,453.59,Single-ply,SBD,M
Boys,67.13,6,Daniel Camarillo,Blooming Grove,65.45,181.44,95.25,158.76,435.45,Single-ply,SBD,M
Boys,67.13,7,Oscar Lujan,Kemp,65.86,163.29,88.45,158.76,410.5,Single-ply,SBD,M
Boys,67.13,8,Jordan McCuistion,Rio Vista,65.77,154.22,95.25,158.76,408.23,Single-ply,SBD,M
Boys,67.13,9,Trevor Morgan,Red Oak Life,66.59,147.42,92.99,167.83,408.23,Single-ply,SBD,M
Boys,67.13,10,Hector Crow,Palmer,64.41,129.27,95.25,170.1,394.63,Single-ply,SBD,M
Boys,67.13,11,Jt Jones,Teague,62.32,142.88,74.84,161.03,378.75,Single-ply,SBD,M
Boys,67.13,12,Langston Madison,Corsicana,66.59,129.27,81.65,145.15,356.07,Single-ply,SBD,M
Boys,67.13,13,Adrian Ojeda,Milford,66.41,142.88,70.31,133.81,347,Single-ply,SBD,M
Boys,67.13,14,Maveric Jewell,Teague,63.05,142.88,54.43,147.42,344.73,Single-ply,SBD,M
Boys,67.13,15,Emmanuel Reese,Dallas Life Oak Cliff,62.05,117.93,65.77,149.69,333.39,Single-ply,SBD,M
Boys,67.13,15,Emmanuel Reese,Dallas Life Oak Cliff,62.05,117.93,65.77,149.69,333.39,Single-ply,SBD,M
Boys,67.13,16,Desmond Marsh,Dallas Life Oak Cliff,66.5,131.54,77.11,117.93,326.59,Single-ply,SBD,M
Boys,67.13,16,Desmond Marsh,Dallas Life Oak Cliff,66.5,131.54,77.11,117.93,326.59,Single-ply,SBD,M
Boys,67.13,17,Nicholas Matthews,Dallas Life Oak Cliff,63.23,138.35,63.5,113.4,315.25,Single-ply,SBD,M
Boys,67.13,17,Nicholas Matthews,Dallas Life Oak Cliff,63.23,138.35,63.5,113.4,315.25,Single-ply,SBD,M
Boys,67.13,18,Nick Snodgrass,Blooming Grove,62.41,102.06,52.16,142.88,297.1,Single-ply,SBD,M
Boys,67.13,19,Zach Neves,Teague,60.87,95.25,52.16,113.4,260.82,Single-ply,SBD,M
Boys,74.84,1,Coy Jorden,Teague,73.21,254.01,147.42,242.67,644.1,Single-ply,SBD,M
Boys,74.84,2,Devyn Hebbe,Axtell,74.03,226.8,97.52,215.46,539.77,Single-ply,SBD,M
Boys,74.84,3,Gabe Cobos,Riesel,67.77,188.24,102.06,213.19,503.49,Single-ply,SBD,M
Boys,74.84,4,Adrian Cooper #2,Red Oak Life,73.66,185.97,104.33,183.7,474,Single-ply,SBD,M
Boys,74.84,5,Daniel Garcia #7,Kemp,73.84,181.44,102.06,190.51,474,Single-ply,SBD,M
Boys,74.84,6,Kaine Blake,Red Oak Life,72.3,197.31,90.72,183.7,471.74,Single-ply,SBD,M
Boys,74.84,7,Darius Dorsey,Mexia,69.94,158.76,108.86,181.44,449.06,Single-ply,SBD,M
Boys,74.84,8,Jesse Alfaro,Palmer,71.3,151.95,120.2,165.56,437.72,Single-ply,SBD,M
Boys,74.84,9,Jose Garcia #4,Kemp,71.67,172.37,83.91,179.17,435.45,Single-ply,SBD,M
Boys,74.84,10,Blake Smith,Rice,74.3,165.56,92.99,165.56,424.11,Single-ply,SBD,M
Boys,74.84,11,JaColby Forge,Mexia,72.12,142.88,83.91,188.24,415.04,Single-ply,SBD,M
Boys,74.84,12,Jared Leal,Palmer,68.95,147.42,86.18,151.95,385.55,Single-ply,SBD,M
Boys,74.84,13,Billy Humphries,Corsicana Mildred,72.57,149.69,90.72,145.15,385.55,Single-ply,SBD,M
Boys,74.84,14,Lane DuBose,Dawson,68.49,138.35,81.65,147.42,367.41,Single-ply,SBD,M
Boys,74.84,15,Kordell Tilley,Dallas Life Oak Cliff,68.67,131.54,79.38,145.15,356.07,Single-ply,SBD,M
Boys,74.84,15,Kordell Tilley,Dallas Life Oak Cliff,68.67,131.54,79.38,145.15,356.07,Single-ply,SBD,M
Boys,74.84,16,Matthew Hipshire,Red Oak Life,71.76,136.08,65.77,154.22,356.07,Single-ply,SBD,M
Boys,74.84,17,Slayden Morgan,Teague,73.12,138.35,70.31,147.42,356.07,Single-ply,SBD,M
Boys,74.84,18,Caleb Hensley,Rice,73.57,136.08,61.23,156.49,353.8,Single-ply,SBD,M
Boys,74.84,19,Jed Wout,Blooming Grove,70.67,131.54,79.38,138.35,349.27,Single-ply,SBD,M
Boys,74.84,20,Alex Tovar,Blooming Grove,73.16,117.93,68.04,136.08,322.05,Single-ply,SBD,M
Boys,74.84,21,Jason Wiggins,Rio Vista,72.3,136.08,65.77,106.59,308.44,Single-ply,SBD,M
Boys,74.84,22,Christian Trigleth,Riesel,69.4,111.13,65.77,127.01,303.91,Single-ply,SBD,M
Boys,82.1,1,Edmond Marton,Axtell,79.47,222.26,113.4,229.06,564.72,Single-ply,SBD,M
Boys,82.1,2,Chris Atchley,Rice,78.38,204.12,113.4,215.46,532.97,Single-ply,SBD,M
Boys,82.1,3,Alberto Carrillo,Mexia,79.2,183.7,117.93,181.44,483.08,Single-ply,SBD,M
Boys,82.1,4,Peanut White,Corsicana,77.38,151.95,102.06,185.97,439.98,Single-ply,SBD,M
Boys,82.1,5,Enzo Garza,Red Oak Life,81.01,154.22,90.72,156.49,401.43,Single-ply,SBD,M
Boys,82.1,6,Preston Diggars,Dawson,80.29,142.88,88.45,156.49,387.82,Single-ply,SBD,M
Boys,82.1,7,Jason Smith #20,Teague,75.3,147.42,72.57,158.76,378.75,Single-ply,SBD,M
Boys,82.1,8,Nolan Murray,Dawson,76.38,124.74,70.31,115.67,310.71,Single-ply,SBD,M
Boys,82.1,9,Aj Salazar,Rio Vista,80.01,113.4,61.23,115.67,290.3,Single-ply,SBD,M
Boys,82.1,10,Gragory Strange,Milford,80.65,65.77,52.16,95.25,213.19,Single-ply,SBD,M
Boys,82.1,DQ,Randall Neal,Mexia,79.65,,,,,Single-ply,SBD,M
Boys,82.1,DQ,John Baker,Rio Vista,75.21,104.33,,,,Single-ply,SBD,M
Boys,82.1,DQ,Guadalupe Torres,Dallas Life Oak Cliff,76.93,,,,,Single-ply,SBD,M
Boys,82.1,DQ,Guadalupe Torres,Dallas Life Oak Cliff,76.93,,,,,Single-ply,SBD,M
Boys,82.1,DQ,Shad Newman,Italy,82.1,,,,,Single-ply,SBD,M
Boys,89.81,1,Keanu Fathal,Corsicana Mildred,83.73,204.12,124.74,195.04,523.9,Single-ply,SBD,M
Boys,89.81,2,Darius Watson,Corsicana,89.45,204.12,113.4,206.38,523.9,Single-ply,SBD,M
Boys,89.81,3,Jason Marroquin #2,Axtell,84.64,195.04,108.86,208.65,512.56,Single-ply,SBD,M
Boys,89.81,4,Erick Torres,Palmer,87.72,185.97,124.74,183.7,494.42,Single-ply,SBD,M
Boys,89.81,5,Rayan Mutina,Corsicana,83.64,192.78,115.67,174.63,483.08,Single-ply,SBD,M
Boys,89.81,6,Colton Oder,Red Oak Life,87.27,181.44,108.86,172.37,462.66,Single-ply,SBD,M
Boys,89.81,7,Jacob Gomez,Teague,89.18,163.29,102.06,172.37,437.72,Single-ply,SBD,M
Boys,89.81,8,Cody Tomlin,Corsicana,83.82,165.56,92.99,147.42,405.97,Single-ply,SBD,M
Boys,89.81,9,Erick Marton,Axtell,88.81,147.42,90.72,165.56,403.7,Single-ply,SBD,M
Boys,89.81,10,Rodrigo Morales,Teague,88.09,145.15,83.91,165.56,394.63,Single-ply,SBD,M
Boys,99.79,11,Jose Perez #20,Teague,89.99,142.88,81.65,156.49,381.02,Single-ply,SBD,M
Boys,89.81,DQ,Matt Hoffman,Red Oak Life,87.72,172.37,95.25,,,Single-ply,SBD,M
Boys,89.81,DQ,Tanner Coone,Axtell,85.55,204.12,,,,Single-ply,SBD,M
Boys,99.79,DQ,Josh Wiggins,Blooming Grove,89.86,,,,,Single-ply,SBD,M
Boys,89.81,DQ,Chris Adkinson,Corsicana,83.91,,,,,Single-ply,SBD,M
Boys,89.81,DQ,Kenneth Norwood,Italy,89.09,,,,,Single-ply,SBD,M
Boys,99.79,1,Ezavian Mosqueda,Dallas Life Oak Cliff,99.43,192.78,120.2,197.31,510.29,Single-ply,SBD,M
Boys,99.79,1,Ezavian Mosqueda,Dallas Life Oak Cliff,99.43,192.78,120.2,197.31,510.29,Single-ply,SBD,M
Boys,99.79,2,Justin Smith #21,Rice,93.71,185.97,111.13,208.65,505.76,Single-ply,SBD,M
Boys,99.79,3,Mazen Subuh,Red Oak Life,96.43,181.44,113.4,181.44,476.27,Single-ply,SBD,M
Boys,109.77,4,Jeremy Grant,Dawson,99.97,181.44,115.67,174.63,471.74,Single-ply,SBD,M
Boys,99.79,5,Ricky Zamora,Corsicana Mildred,92.44,181.44,104.33,170.1,455.86,Single-ply,SBD,M
Boys,99.79,6,Keenon Ponder,Dallas Life Oak Cliff,95.98,142.88,111.13,151.95,405.97,Single-ply,SBD,M
Boys,99.79,6,Keenon Ponder,Dallas Life Oak Cliff,95.98,142.88,111.13,151.95,405.97,Single-ply,SBD,M
Boys,99.79,7,Rahi Patel,Mexia,92.08,142.88,97.52,158.76,399.16,Single-ply,SBD,M
Boys,109.77,8,Juan Venegas,Milford,99.97,140.61,90.72,156.49,387.82,Single-ply,SBD,M
Boys,99.79,9,Matthew Richter,Riesel,93.35,136.08,88.45,158.76,383.29,Single-ply,SBD,M
Boys,99.79,10,Travis Keele,Dawson,90.36,133.81,61.23,142.88,337.93,Single-ply,SBD,M
Boys,99.79,DQ,Blake Nesmith,Dawson,92.35,,,,,Single-ply,SBD,M
Boys,109.77,1,Tracy Hightower,Red Oak Life,105.6,247.21,120.2,201.85,569.26,Single-ply,SBD,M
Boys,109.77,2,Jose Reyes,Mexia,106.5,226.8,124.74,204.12,555.65,Single-ply,SBD,M
Boys,109.77,3,Chauncey Rich,Red Oak Life,101.79,195.04,131.54,188.24,514.83,Single-ply,SBD,M
Boys,109.77,4,Jermal Warren,Dallas Life Oak Cliff,105.6,188.24,147.42,170.1,505.76,Single-ply,SBD,M
Boys,109.77,4,Jermal Warren,Dallas Life Oak Cliff,105.6,188.24,147.42,170.1,505.76,Single-ply,SBD,M
Boys,109.77,5,Dylan Morgan #2,Riesel,103.51,163.29,117.93,158.76,439.98,Single-ply,SBD,M
Boys,109.77,6,William Robert,Riesel,104.14,142.88,102.06,163.29,408.23,Single-ply,SBD,M
Boys,124.74,7,Ceasar Campuzano,Corsicana,109.95,145.15,113.4,142.88,401.43,Single-ply,SBD,M
Boys,109.77,8,Brandon Johnson,Corsicana,100.15,142.88,102.06,142.88,387.82,Single-ply,SBD,M
Boys,124.74,9,Anthony Regino,Rice,109.95,136.08,88.45,142.88,367.41,Single-ply,SBD,M
Boys,109.77,DQ,Brad Lafoy,Teague,103.87,,,,,Single-ply,SBD,M
Boys,109.77,DQ,Jimmy Potter,Blooming Grove,104.96,122.47,,,,Single-ply,SBD,M
Boys,109.77,DQ,Dakota Greer,Dawson,103.06,127.01,70.31,,,Single-ply,SBD,M
Boys,109.77,DQ,Eliseo Banda,Mexia,104.87,147.42,,,,Single-ply,SBD,M
Boys,109.77,DQ,Ricardo Molina,Mexia,101.24,,,,,Single-ply,SBD,M
Boys,124.74,1,Ryan Mitchell #2,Teague,115.48,274.42,145.15,249.48,669.05,Single-ply,SBD,M
Boys,124.74,2,Reagan Cloud,Corsicana Mildred,111.13,229.06,124.74,206.38,560.19,Single-ply,SBD,M
Boys,124.74,3,Luke Linebaugh,Kemp,123.2,226.8,127.01,206.38,560.19,Single-ply,SBD,M
Boys,124.74,4,Alex Valencia,Corsicana,118.84,174.63,127.01,181.44,483.08,Single-ply,SBD,M
Boys,124.74,5,Jonathon Seaton,Corsicana,110.77,136.08,92.99,195.04,424.11,Single-ply,SBD,M
Boys,124.74,6,Julio Fantao,Corsicana,124.1,115.67,79.38,142.88,337.93,Single-ply,SBD,M
Boys,124.74+,1,Jonathon Seabolt,Blooming Grove,138.03,231.33,145.15,195.04,571.53,Single-ply,SBD,M
Boys,124.74+,2,Demetri Freeman,Mexia,131.81,181.44,102.06,172.37,455.86,Single-ply,SBD,M
Boys,124.74+,3,Daeyon Barnes,Dallas Life Oak Cliff,150.32,133.81,74.84,156.49,365.14,Single-ply,SBD,M
Boys,124.74+,3,Daeyon Barnes,Dallas Life Oak Cliff,150.32,133.81,74.84,156.49,365.14,Single-ply,SBD,M
Boys,124.74+,4,Isaiah Thomas,Mexia,132.27,136.08,79.38,147.42,362.87,Single-ply,SBD,M
Boys,124.74+,DQ,Michael Williams,Dawson,165.02,,,,,Single-ply,SBD,M
